combo,DecisionTreeClassifier,0.906794054322825,0.908318013890267,0.905398332098286,0.906838047087875
combo,GaussianNB,0.653588580572562,0.957610710326114,0.323000645969246,0.482973024417628
combo,QuadraticDiscriminantAnalysis,0.747496341136133,0.855720434316891,0.596804948734143,0.702772768528482
combo,RandomForestClassifier,0.93756252852098,0.953898005911184,0.919899153422617,0.936568704926598
combo,SVC,0.78853447739901,0.973014425376324,0.594498387237318,0.738006888459024
combo_without0,DecisionTreeClassifier,0.907396477207698,0.9118514880843,0.902467485694538,0.90711951228568
combo_without0,GaussianNB,0.585521736852264,0.662096359377677,0.83940066728551,0.671384327468414
combo_without0,QuadraticDiscriminantAnalysis,0.595810628843212,0.614138024031598,0.901866365422394,0.700772345240845
combo_without0,RandomForestClassifier,0.937496081519406,0.965226377441598,0.908000392718575,0.935720211188813
combo_without0,SVC,0.822442525954172,0.977607408226788,0.660867026274617,0.788538787818482
dll,DecisionTreeClassifier,0.865153619538907,0.834620289011171,0.941000635407132,0.884601129544266
dll,GaussianNB,0.718552883320994,0.662024149958511,0.997000359831995,0.795639161369527
dll,QuadraticDiscriminantAnalysis,0.719156476271538,0.662894450011487,0.995400619756001,0.795741154545498
dll,RandomForestClassifier,0.879709249871404,0.848674274076359,0.9504999360272,0.896700488870857
dll,SVC,0.737889620906257,0.699799594438026,0.915700173290672,0.793303937594406
entropies,DecisionTreeClassifier,0.74331882977599,0.74538812688325,0.740933365947859,0.74312880824705
entropies,GaussianNB,0.586640473968043,0.598939561575422,0.898900071926391,0.692564123518223
entropies,QuadraticDiscriminantAnalysis,0.586139371518548,0.59868927051828,0.897133398450362,0.691955762815693
entropies,RandomForestClassifier,0.75297335346042,0.765953994752258,0.730199778371656,0.747621525491511
entropies,SVC,0.805439091959675,0.965650311156744,0.634300730890237,0.765613105800758
freq,DecisionTreeClassifier,0.926600424212876,0.936163924603324,0.915700353326694,0.925781979379943
freq,GaussianNB,0.818451045685221,0.916882729771418,0.700401396311374,0.794079810461356
freq,QuadraticDiscriminantAnalysis,0.89639956162429,0.921384637841712,0.866898349021672,0.893220322174949
freq,RandomForestClassifier,0.949600896147301,0.969333397396914,0.928600954478972,0.948510630224812
freq,SVC,0.51759957132223,0.509849154430073,0.912699812978581,0.6542128187665
freq_without0,DecisionTreeClassifier,0.923999683856746,0.929871334108804,0.917299373258602,0.923479043098851
freq_without0,GaussianNB,0.829648896151142,0.899689489927502,0.742197238823544,0.813242199448446
freq_without0,QuadraticDiscriminantAnalysis,0.870002650130238,0.85558769099051,0.892596690745884,0.873057877282026
freq_without0,RandomForestClassifier,0.948249935847164,0.969659974236452,0.925499954030803,0.947033376165452
freq_without0,SVC,0.513250021064215,0.506757648850309,0.994300119567923,0.671349682595826
tfs,DecisionTreeClassifier,0.907335880788303,0.908757292676727,0.906079456377632,0.907402622870463
tfs,GaussianNB,0.654580989187736,0.957130332144302,0.3253199540164,0.485290891013978
tfs,QuadraticDiscriminantAnalysis,0.719130717652668,0.86243856018045,0.522847681364087,0.650916435167205
tfs,RandomForestClassifier,0.936084645427472,0.955600145804468,0.914999893178627,0.934839365882458
tfs,SVC,0.715800344901738,0.979146093883223,0.442300345453118,0.609254663830746
tfs_without0,DecisionTreeClassifier,0.906744140045335,0.911115080754704,0.901899632078386,0.906469477589949
tfs_without0,GaussianNB,0.758217613411227,0.979889337167262,0.528400142300471,0.686439680206835
tfs_without0,QuadraticDiscriminantAnalysis,0.780818238135066,0.851196212759485,0.68180109476304,0.757117951645108
tfs_without0,RandomForestClassifier,0.934806871856323,0.964549384314846,0.903099872222434,0.932784173002229
tfs_without0,SVC,0.838143665935677,0.971181495686408,0.697700315879201,0.81202058624547
