0.3803680981595092;0.006134969325153374;0.0;0.006134969325153374;0.006134969325153374;0.0;0.0;0.0;0.0;0.006134969325153374;0.006134969325153374;0.0;0.0;0.006134969325153374;0.012269938650306749;0.0;0.0;0.0;0.0;0.0;0.0;0.0;0.006134969325153374;0.0;0.0;0.0;0.0;0.024539877300613498;0.0;0.0;0.0;0.006134969325153374;0.04294478527607362;0.012269938650306749;0.0;0.0;0.006134969325153374;0.0;0.0;0.0;0.0;0.0;0.0;0.0;0.0;0.0;0.006134969325153374;0.0;0.0;0.0;0.006134969325153374;0.0;0.0;0.0;0.0;0.0;0.0;0.0;0.0;0.0;0.0;0.0;0.0;0.0;0.006134969325153374;0.0;0.006134969325153374;0.0;0.006134969325153374;0.0;0.0;0.0;0.0;0.0;0.0;0.0;0.006134969325153374;0.006134969325153374;0.0;0.006134969325153374;0.0;0.0;0.0;0.006134969325153374;0.006134969325153374;0.0;0.0;0.0;0.0;0.0;0.006134969325153374;0.0;0.0;0.0;0.0;0.006134969325153374;0.0;0.012269938650306749;0.006134969325153374;0.006134969325153374;0.006134969325153374;0.012269938650306749;0.0;0.006134969325153374;0.006134969325153374;0.012269938650306749;0.0;0.0;0.0;0.012269938650306749;0.024539877300613498;0.018404907975460124;0.006134969325153374;0.0;0.018404907975460124;0.006134969325153374;0.006134969325153374;0.006134969325153374;0.0;0.0;0.0;0.0;0.0;0.0;0.0;0.0;0.0;0.0;0.0;0.0;0.0;0.0;0.0;0.0;0.0;0.0;0.0;0.0;0.0;0.0;0.0;0.0;0.0;0.0;0.006134969325153374;0.0;0.0;0.0;0.0;0.0;0.03680981595092025;0.0;0.0;0.0;0.0;0.0;0.0;0.0;0.0;0.0;0.0;0.0;0.0;0.0;0.0;0.0;0.0;0.0;0.0;0.0;0.0;0.0;0.0;0.0;0.0;0.0;0.006134969325153374;0.0;0.0;0.0;0.006134969325153374;0.006134969325153374;0.006134969325153374;0.0;0.012269938650306749;0.0;0.006134969325153374;0.0;0.0;0.006134969325153374;0.0;0.0;0.0;0.0;0.0;0.0;0.0;0.0;0.0;0.0;0.006134969325153374;0.0;0.0;0.0;0.006134969325153374;0.018404907975460124;0.0;0.0;0.0;0.0;0.0;0.0;0.0;0.0;0.0;0.0;0.0;0.0;0.0;0.0;0.0;0.0;0.03067484662576687;0.006134969325153374;0.0;0.0;0.0;0.0;0.0;0.0;0.0;0.006134969325153374;0.0;0.0;0.0;0.0;0.0;0.0;0.049079754601226995;0.0;0.0;0.0;0.0;0.0;0.0;0.0;0.0;0.006134969325153374;0.0;0.0;0.0;0.0;0.0;0.0;0.0;0.012269938650306749;Backdoor.Win32.000
0.6153846153846154;0.0;0.038461538461538464;0.0;0.038461538461538464;0.0;0.0;0.0;0.0;0.0;0.0;0.0;0.0;0.0;0.0;0.038461538461538464;0.0;0.0;0.0;0.0;0.0;0.0;0.0;0.0;0.0;0.0;0.0;0.0;0.0;0.0;0.0;0.0;0.0;0.0;0.0;0.0;0.0;0.0;0.0;0.0;0.0;0.0;0.0;0.0;0.0;0.0;0.0;0.0;0.0;0.0;0.0;0.0;0.0;0.0;0.0;0.0;0.0;0.0;0.0;0.0;0.0;0.0;0.0;0.0;0.038461538461538464;0.0;0.0;0.0;0.0;0.0;0.0;0.0;0.0;0.0;0.0;0.0;0.0;0.038461538461538464;0.0;0.0;0.038461538461538464;0.0;0.0;0.0;0.0;0.0;0.0;0.0;0.0;0.0;0.038461538461538464;0.0;0.0;0.0;0.0;0.0;0.0;0.0;0.0;0.0;0.0;0.0;0.0;0.0;0.0;0.0;0.0;0.0;0.0;0.0;0.0;0.0;0.0;0.0;0.0;0.0;0.0;0.0;0.0;0.0;0.0;0.0;0.0;0.0;0.0;0.0;0.0;0.0;0.0;0.0;0.0;0.0;0.0;0.0;0.0;0.0;0.0;0.0;0.0;0.0;0.0;0.0;0.0;0.0;0.0;0.0;0.0;0.0;0.0;0.0;0.0;0.0;0.0;0.0;0.0;0.0;0.0;0.0;0.0;0.0;0.0;0.0;0.0;0.0;0.0;0.0;0.0;0.0;0.0;0.0;0.0;0.0;0.0;0.0;0.0;0.0;0.0;0.0;0.0;0.0;0.0;0.0;0.0;0.0;0.038461538461538464;0.0;0.0;0.0;0.0;0.0;0.0;0.0;0.0;0.0;0.0;0.0;0.0;0.0;0.0;0.0;0.0;0.0;0.0;0.0;0.0;0.0;0.0;0.0;0.0;0.0;0.0;0.0;0.0;0.0;0.0;0.0;0.0;0.0;0.0;0.0;0.0;0.0;0.0;0.0;0.0;0.0;0.0;0.0;0.0;0.0;0.0;0.0;0.0;0.0;0.0;0.0;0.0;0.0;0.0;0.0;0.0;0.0;0.0;0.0;0.0;0.0;0.0;0.0;0.0;0.0;0.0;0.0;0.0;0.0;0.0;0.07692307692307693;Backdoor.Win32.001
0.44508670520231214;0.006936416184971098;0.007514450867052023;0.008092485549132947;0.009248554913294798;0.005202312138728324;0.005780346820809248;0.0017341040462427746;0.004046242774566474;0.004624277456647399;0.0017341040462427746;0.0023121387283236996;0.009248554913294798;0.002890173410404624;0.003468208092485549;0.005202312138728324;0.011560693641618497;0.002890173410404624;0.0017341040462427746;0.0017341040462427746;0.005202312138728324;0.003468208092485549;0.0011560693641618498;0.0011560693641618498;0.003468208092485549;0.0023121387283236996;0.0;0.0017341040462427746;0.0023121387283236996;0.0011560693641618498;0.0005780346820809249;0.0017341040462427746;0.008092485549132947;0.0023121387283236996;0.0005780346820809249;0.0005780346820809249;0.005202312138728324;0.0;0.006936416184971098;0.0005780346820809249;0.002890173410404624;0.0011560693641618498;0.0011560693641618498;0.003468208092485549;0.002890173410404624;0.0005780346820809249;0.0023121387283236996;0.002890173410404624;0.010404624277456647;0.002890173410404624;0.002890173410404624;0.002890173410404624;0.004624277456647399;0.0011560693641618498;0.0017341040462427746;0.0005780346820809249;0.0017341040462427746;0.0011560693641618498;0.0005780346820809249;0.011560693641618497;0.0;0.0017341040462427746;0.0011560693641618498;0.0023121387283236996;0.003468208092485549;0.0023121387283236996;0.002890173410404624;0.0;0.002890173410404624;0.0005780346820809249;0.0;0.0017341040462427746;0.0011560693641618498;0.0017341040462427746;0.0;0.0011560693641618498;0.0017341040462427746;0.0017341040462427746;0.0;0.0011560693641618498;0.003468208092485549;0.0023121387283236996;0.0005780346820809249;0.002890173410404624;0.002890173410404624;0.0023121387283236996;0.0011560693641618498;0.002890173410404624;0.003468208092485549;0.0011560693641618498;0.0017341040462427746;0.0005780346820809249;0.004046242774566474;0.0005780346820809249;0.0;0.0023121387283236996;0.0011560693641618498;0.0011560693641618498;0.0005780346820809249;0.0023121387283236996;0.0017341040462427746;0.0023121387283236996;0.003468208092485549;0.002890173410404624;0.002890173410404624;0.006358381502890174;0.0011560693641618498;0.0;0.004046242774566474;0.005202312138728324;0.0023121387283236996;0.003468208092485549;0.003468208092485549;0.0;0.005780346820809248;0.002890173410404624;0.002890173410404624;0.004046242774566474;0.002890173410404624;0.0017341040462427746;0.0005780346820809249;0.0005780346820809249;0.0005780346820809249;0.0011560693641618498;0.0017341040462427746;0.0017341040462427746;0.0017341040462427746;0.002890173410404624;0.002890173410404624;0.0017341040462427746;0.0;0.005202312138728324;0.0011560693641618498;0.003468208092485549;0.0017341040462427746;0.0017341040462427746;0.0005780346820809249;0.009248554913294798;0.002890173410404624;0.009826589595375723;0.0017341040462427746;0.003468208092485549;0.0;0.0005780346820809249;0.002890173410404624;0.0;0.0005780346820809249;0.0005780346820809249;0.0005780346820809249;0.0;0.0;0.0011560693641618498;0.0;0.0005780346820809249;0.0;0.0005780346820809249;0.0;0.0;0.0;0.0005780346820809249;0.0011560693641618498;0.0023121387283236996;0.0005780346820809249;0.0017341040462427746;0.0011560693641618498;0.0;0.0;0.0011560693641618498;0.0;0.0005780346820809249;0.0;0.0;0.0011560693641618498;0.0005780346820809249;0.0011560693641618498;0.0017341040462427746;0.0011560693641618498;0.0011560693641618498;0.0005780346820809249;0.0011560693641618498;0.0011560693641618498;0.0017341040462427746;0.0005780346820809249;0.0011560693641618498;0.002890173410404624;0.0;0.0011560693641618498;0.0005780346820809249;0.0005780346820809249;0.0023121387283236996;0.0017341040462427746;0.0023121387283236996;0.002890173410404624;0.007514450867052023;0.004046242774566474;0.005202312138728324;0.0005780346820809249;0.0005780346820809249;0.0011560693641618498;0.0011560693641618498;0.0005780346820809249;0.0017341040462427746;0.0;0.0;0.0017341040462427746;0.003468208092485549;0.0;0.0;0.002890173410404624;0.0017341040462427746;0.002890173410404624;0.0017341040462427746;0.0005780346820809249;0.0011560693641618498;0.0005780346820809249;0.0;0.002890173410404624;0.0005780346820809249;0.0017341040462427746;0.0023121387283236996;0.0011560693641618498;0.0;0.0011560693641618498;0.0017341040462427746;0.005202312138728324;0.0017341040462427746;0.0011560693641618498;0.0017341040462427746;0.0023121387283236996;0.0017341040462427746;0.0;0.0017341040462427746;0.006358381502890174;0.0005780346820809249;0.002890173410404624;0.002890173410404624;0.0023121387283236996;0.0017341040462427746;0.0011560693641618498;0.0017341040462427746;0.002890173410404624;0.0011560693641618498;0.003468208092485549;0.002890173410404624;0.0;0.0011560693641618498;0.0017341040462427746;0.003468208092485549;0.0023121387283236996;0.0005780346820809249;0.0017341040462427746;0.002890173410404624;0.0011560693641618498;0.0017341040462427746;0.004046242774566474;0.007514450867052023;Backdoor.Win32.002
0.5122739018087855;0.00904392764857881;0.009689922480620155;0.00516795865633075;0.005813953488372093;0.001937984496124031;0.003229974160206718;0.002583979328165375;0.003229974160206718;0.002583979328165375;0.0006459948320413437;0.0012919896640826874;0.002583979328165375;0.002583979328165375;0.002583979328165375;0.002583979328165375;0.008397932816537468;0.0;0.004521963824289405;0.003875968992248062;0.003229974160206718;0.003875968992248062;0.001937984496124031;0.0012919896640826874;0.0006459948320413437;0.002583979328165375;0.0;0.002583979328165375;0.0;0.0006459948320413437;0.0006459948320413437;0.0012919896640826874;0.00516795865633075;0.002583979328165375;0.002583979328165375;0.001937984496124031;0.001937984496124031;0.0012919896640826874;0.0;0.0;0.0006459948320413437;0.0012919896640826874;0.0;0.001937984496124031;0.0006459948320413437;0.002583979328165375;0.001937984496124031;0.0012919896640826874;0.002583979328165375;0.0012919896640826874;0.003229974160206718;0.0;0.001937984496124031;0.0;0.001937984496124031;0.0006459948320413437;0.0012919896640826874;0.0012919896640826874;0.0;0.001937984496124031;0.003229974160206718;0.0;0.0012919896640826874;0.0012919896640826874;0.005813953488372093;0.0;0.0012919896640826874;0.0006459948320413437;0.001937984496124031;0.00516795865633075;0.001937984496124031;0.0006459948320413437;0.0;0.0012919896640826874;0.0006459948320413437;0.0006459948320413437;0.0012919896640826874;0.005813953488372093;0.0;0.001937984496124031;0.010981912144702842;0.004521963824289405;0.00516795865633075;0.002583979328165375;0.0006459948320413437;0.00516795865633075;0.0012919896640826874;0.0006459948320413437;0.002583979328165375;0.0;0.0006459948320413437;0.0006459948320413437;0.001937984496124031;0.0006459948320413437;0.0006459948320413437;0.0006459948320413437;0.001937984496124031;0.0012919896640826874;0.0012919896640826874;0.0012919896640826874;0.0012919896640826874;0.001937984496124031;0.001937984496124031;0.001937984496124031;0.003875968992248062;0.002583979328165375;0.003229974160206718;0.0;0.003229974160206718;0.004521963824289405;0.011627906976744186;0.012919896640826873;0.003229974160206718;0.003229974160206718;0.003875968992248062;0.001937984496124031;0.001937984496124031;0.003229974160206718;0.002583979328165375;0.0006459948320413437;0.0012919896640826874;0.0012919896640826874;0.0;0.0006459948320413437;0.001937984496124031;0.001937984496124031;0.0;0.0012919896640826874;0.004521963824289405;0.0006459948320413437;0.0;0.003875968992248062;0.0006459948320413437;0.0012919896640826874;0.0012919896640826874;0.0006459948320413437;0.0006459948320413437;0.003875968992248062;0.0012919896640826874;0.005813953488372093;0.003229974160206718;0.003875968992248062;0.0;0.001937984496124031;0.003875968992248062;0.0012919896640826874;0.0012919896640826874;0.0012919896640826874;0.002583979328165375;0.002583979328165375;0.0;0.0012919896640826874;0.002583979328165375;0.0012919896640826874;0.0;0.0012919896640826874;0.002583979328165375;0.001937984496124031;0.0012919896640826874;0.003229974160206718;0.0012919896640826874;0.0006459948320413437;0.0006459948320413437;0.0006459948320413437;0.002583979328165375;0.0;0.0006459948320413437;0.0;0.002583979328165375;0.0;0.0006459948320413437;0.001937984496124031;0.002583979328165375;0.0;0.0;0.0006459948320413437;0.0006459948320413437;0.0012919896640826874;0.0;0.0006459948320413437;0.0006459948320413437;0.0;0.0;0.0006459948320413437;0.002583979328165375;0.0012919896640826874;0.0006459948320413437;0.001937984496124031;0.003875968992248062;0.001937984496124031;0.0012919896640826874;0.0006459948320413437;0.003875968992248062;0.0;0.0006459948320413437;0.0006459948320413437;0.001937984496124031;0.0;0.0;0.0012919896640826874;0.0006459948320413437;0.0012919896640826874;0.0012919896640826874;0.0006459948320413437;0.002583979328165375;0.002583979328165375;0.001937984496124031;0.0012919896640826874;0.003229974160206718;0.0;0.0006459948320413437;0.0;0.0;0.0;0.0006459948320413437;0.0;0.0;0.003229974160206718;0.0012919896640826874;0.0006459948320413437;0.0012919896640826874;0.0012919896640826874;0.0006459948320413437;0.0;0.003875968992248062;0.0006459948320413437;0.0;0.0012919896640826874;0.008397932816537468;0.0012919896640826874;0.0012919896640826874;0.0;0.006459948320413436;0.003229974160206718;0.0006459948320413437;0.0006459948320413437;0.00516795865633075;0.0006459948320413437;0.00516795865633075;0.001937984496124031;0.0;0.0;0.0006459948320413437;0.0012919896640826874;0.001937984496124031;0.0;0.001937984496124031;0.0012919896640826874;0.001937984496124031;0.0;0.0;0.001937984496124031;0.001937984496124031;0.0006459948320413437;0.006459948320413436;0.007751937984496124;Backdoor.Win32.003
0.42657342657342656;0.006993006993006993;0.0;0.006993006993006993;0.006993006993006993;0.0;0.0;0.006993006993006993;0.0;0.006993006993006993;0.006993006993006993;0.0;0.0;0.006993006993006993;0.013986013986013986;0.0;0.0;0.0;0.006993006993006993;0.0;0.0;0.0;0.0;0.0;0.0;0.0;0.0;0.0;0.0;0.0;0.0;0.006993006993006993;0.04895104895104895;0.013986013986013986;0.0;0.0;0.006993006993006993;0.0;0.0;0.0;0.0;0.0;0.0;0.0;0.0;0.0;0.006993006993006993;0.0;0.0;0.0;0.0;0.0;0.0;0.0;0.0;0.0;0.0;0.0;0.0;0.0;0.0;0.0;0.0;0.0;0.006993006993006993;0.0;0.0;0.0;0.006993006993006993;0.0;0.0;0.0;0.0;0.0;0.0;0.0;0.006993006993006993;0.006993006993006993;0.0;0.006993006993006993;0.0;0.0;0.0;0.006993006993006993;0.006993006993006993;0.0;0.0;0.0;0.0;0.0;0.006993006993006993;0.0;0.0;0.0;0.0;0.0;0.0;0.013986013986013986;0.006993006993006993;0.006993006993006993;0.006993006993006993;0.013986013986013986;0.0;0.006993006993006993;0.006993006993006993;0.03496503496503497;0.0;0.0;0.0;0.013986013986013986;0.027972027972027972;0.02097902097902098;0.006993006993006993;0.0;0.02097902097902098;0.027972027972027972;0.006993006993006993;0.006993006993006993;0.0;0.0;0.0;0.0;0.0;0.0;0.0;0.0;0.0;0.0;0.0;0.0;0.0;0.0;0.0;0.0;0.0;0.0;0.02097902097902098;0.0;0.0;0.0;0.0;0.0;0.0;0.0;0.006993006993006993;0.0;0.0;0.0;0.0;0.0;0.0;0.0;0.0;0.0;0.0;0.0;0.0;0.0;0.0;0.0;0.0;0.0;0.0;0.0;0.0;0.0;0.0;0.0;0.006993006993006993;0.0;0.0;0.0;0.0;0.0;0.0;0.0;0.0;0.0;0.0;0.0;0.006993006993006993;0.0;0.0;0.006993006993006993;0.02097902097902098;0.0;0.006993006993006993;0.0;0.0;0.0;0.0;0.0;0.0;0.0;0.0;0.0;0.0;0.0;0.0;0.0;0.0;0.0;0.0;0.0;0.0;0.013986013986013986;0.0;0.0;0.0;0.0;0.0;0.0;0.0;0.0;0.0;0.0;0.0;0.0;0.0;0.006993006993006993;0.0;0.0;0.0;0.0;0.0;0.0;0.0;0.0;0.0;0.0;0.0;0.0;0.0;0.0;0.0;0.0;0.0;0.0;0.0;0.0;0.0;0.0;0.0;0.02097902097902098;0.0;0.0;0.0;0.0;0.0;0.0;0.0;0.0;0.0;0.0;0.0;0.013986013986013986;Backdoor.Win32.004
0.6153846153846154;0.0;0.038461538461538464;0.0;0.038461538461538464;0.0;0.0;0.0;0.0;0.0;0.0;0.0;0.0;0.0;0.0;0.038461538461538464;0.0;0.0;0.0;0.0;0.0;0.0;0.0;0.0;0.0;0.0;0.0;0.0;0.0;0.0;0.0;0.0;0.0;0.0;0.0;0.0;0.0;0.0;0.0;0.0;0.0;0.0;0.0;0.0;0.0;0.0;0.0;0.0;0.0;0.0;0.0;0.0;0.0;0.0;0.0;0.0;0.0;0.0;0.0;0.0;0.0;0.0;0.0;0.0;0.038461538461538464;0.0;0.0;0.0;0.0;0.0;0.0;0.0;0.0;0.0;0.0;0.0;0.0;0.038461538461538464;0.0;0.0;0.038461538461538464;0.0;0.0;0.0;0.0;0.0;0.0;0.0;0.0;0.0;0.038461538461538464;0.0;0.0;0.0;0.0;0.0;0.0;0.0;0.0;0.0;0.0;0.0;0.0;0.0;0.0;0.0;0.0;0.0;0.0;0.0;0.0;0.0;0.0;0.0;0.0;0.0;0.0;0.0;0.0;0.0;0.0;0.0;0.0;0.0;0.0;0.0;0.0;0.0;0.0;0.0;0.0;0.0;0.0;0.0;0.0;0.0;0.0;0.0;0.0;0.0;0.0;0.0;0.0;0.0;0.0;0.0;0.0;0.0;0.0;0.0;0.0;0.0;0.0;0.0;0.0;0.0;0.0;0.0;0.0;0.0;0.0;0.0;0.0;0.0;0.0;0.0;0.0;0.0;0.0;0.0;0.0;0.0;0.0;0.0;0.0;0.0;0.0;0.0;0.0;0.0;0.0;0.0;0.0;0.0;0.038461538461538464;0.0;0.0;0.0;0.0;0.0;0.0;0.0;0.0;0.0;0.0;0.0;0.0;0.0;0.0;0.0;0.0;0.0;0.0;0.0;0.0;0.0;0.0;0.0;0.0;0.0;0.0;0.0;0.0;0.0;0.0;0.0;0.0;0.0;0.0;0.0;0.0;0.0;0.0;0.0;0.0;0.0;0.0;0.0;0.0;0.0;0.0;0.0;0.0;0.0;0.0;0.0;0.0;0.0;0.0;0.0;0.0;0.0;0.0;0.0;0.0;0.0;0.0;0.0;0.0;0.0;0.0;0.0;0.0;0.0;0.0;0.07692307692307693;Backdoor.Win32.005
0.3165407220822838;0.020151133501259445;0.005877413937867338;0.016792611251049538;0.007556675062972292;0.0008396305625524769;0.0016792611251049538;0.0025188916876574307;0.0033585222502099076;0.0033585222502099076;0.0041981528127623844;0.006717044500419815;0.0016792611251049538;0.0033585222502099076;0.0025188916876574307;0.0033585222502099076;0.009235936188077247;0.0016792611251049538;0.0016792611251049538;0.0025188916876574307;0.0041981528127623844;0.0033585222502099076;0.0008396305625524769;0.0016792611251049538;0.0016792611251049538;0.0;0.0;0.0033585222502099076;0.0033585222502099076;0.0016792611251049538;0.0008396305625524769;0.0025188916876574307;0.028547439126784216;0.0033585222502099076;0.0008396305625524769;0.010075566750629723;0.005877413937867338;0.0008396305625524769;0.0016792611251049538;0.0;0.0025188916876574307;0.0016792611251049538;0.0008396305625524769;0.0008396305625524769;0.0033585222502099076;0.0016792611251049538;0.007556675062972292;0.0025188916876574307;0.010075566750629723;0.0033585222502099076;0.005037783375314861;0.0008396305625524769;0.0033585222502099076;0.0016792611251049538;0.0016792611251049538;0.0008396305625524769;0.0025188916876574307;0.0041981528127623844;0.0025188916876574307;0.0025188916876574307;0.005037783375314861;0.0008396305625524769;0.0;0.0008396305625524769;0.01343408900083963;0.010075566750629723;0.0008396305625524769;0.0025188916876574307;0.0025188916876574307;0.0008396305625524769;0.0;0.0008396305625524769;0.0033585222502099076;0.0025188916876574307;0.0008396305625524769;0.0008396305625524769;0.005037783375314861;0.0033585222502099076;0.0008396305625524769;0.0041981528127623844;0.011754827875734676;0.0008396305625524769;0.0016792611251049538;0.0016792611251049538;0.0041981528127623844;0.006717044500419815;0.0016792611251049538;0.0033585222502099076;0.007556675062972292;0.0025188916876574307;0.0025188916876574307;0.0;0.0033585222502099076;0.0025188916876574307;0.0016792611251049538;0.0025188916876574307;0.0041981528127623844;0.005877413937867338;0.0025188916876574307;0.005877413937867338;0.007556675062972292;0.011754827875734676;0.0033585222502099076;0.005037783375314861;0.011754827875734676;0.008396305625524769;0.0;0.0016792611251049538;0.009235936188077247;0.005037783375314861;0.006717044500419815;0.006717044500419815;0.007556675062972292;0.0;0.0109151973131822;0.007556675062972292;0.009235936188077247;0.005037783375314861;0.0016792611251049538;0.0016792611251049538;0.005877413937867338;0.0025188916876574307;0.0008396305625524769;0.0;0.0041981528127623844;0.0008396305625524769;0.0016792611251049538;0.0008396305625524769;0.005037783375314861;0.0016792611251049538;0.0016792611251049538;0.0;0.0025188916876574307;0.0008396305625524769;0.0008396305625524769;0.0;0.0008396305625524769;0.0;0.0008396305625524769;0.0008396305625524769;0.005877413937867338;0.0008396305625524769;0.0008396305625524769;0.0025188916876574307;0.0025188916876574307;0.0;0.0008396305625524769;0.0008396305625524769;0.0025188916876574307;0.0;0.0016792611251049538;0.0016792611251049538;0.0;0.0008396305625524769;0.0;0.0016792611251049538;0.0016792611251049538;0.0;0.0016792611251049538;0.0008396305625524769;0.0;0.0008396305625524769;0.0008396305625524769;0.0008396305625524769;0.0016792611251049538;0.0;0.0025188916876574307;0.0016792611251049538;0.0008396305625524769;0.0016792611251049538;0.0008396305625524769;0.0;0.0;0.0008396305625524769;0.0016792611251049538;0.0;0.0041981528127623844;0.0;0.0025188916876574307;0.0;0.0008396305625524769;0.0008396305625524769;0.0016792611251049538;0.0025188916876574307;0.0025188916876574307;0.0016792611251049538;0.0041981528127623844;0.0025188916876574307;0.0008396305625524769;0.0;0.0008396305625524769;0.0025188916876574307;0.0008396305625524769;0.0;0.0008396305625524769;0.0008396305625524769;0.0008396305625524769;0.0;0.0;0.0016792611251049538;0.005037783375314861;0.0016792611251049538;0.0;0.0;0.0008396305625524769;0.0041981528127623844;0.0;0.0016792611251049538;0.0016792611251049538;0.0016792611251049538;0.0;0.0008396305625524769;0.0025188916876574307;0.0;0.0008396305625524769;0.0033585222502099076;0.0008396305625524769;0.0008396305625524769;0.0016792611251049538;0.0033585222502099076;0.0025188916876574307;0.0008396305625524769;0.0008396305625524769;0.0025188916876574307;0.005877413937867338;0.0016792611251049538;0.0008396305625524769;0.0;0.0033585222502099076;0.0008396305625524769;0.0;0.0033585222502099076;0.0033585222502099076;0.0008396305625524769;0.0008396305625524769;0.0025188916876574307;0.0025188916876574307;0.0;0.0016792611251049538;0.0;0.0033585222502099076;0.0;0.0016792611251049538;0.0008396305625524769;0.0025188916876574307;0.0008396305625524769;0.0016792611251049538;0.0008396305625524769;0.0016792611251049538;0.0;0.0;0.0008396305625524769;0.0016792611251049538;0.0025188916876574307;0.0016792611251049538;0.005877413937867338;Backdoor.Win32.006
0.6153846153846154;0.0;0.038461538461538464;0.0;0.038461538461538464;0.0;0.0;0.0;0.0;0.0;0.0;0.0;0.0;0.0;0.0;0.038461538461538464;0.0;0.0;0.0;0.0;0.0;0.0;0.0;0.0;0.0;0.0;0.0;0.0;0.0;0.0;0.0;0.0;0.0;0.0;0.0;0.0;0.0;0.0;0.0;0.0;0.0;0.0;0.0;0.0;0.0;0.0;0.0;0.0;0.0;0.0;0.0;0.0;0.0;0.0;0.0;0.0;0.0;0.0;0.0;0.0;0.0;0.0;0.0;0.0;0.038461538461538464;0.0;0.0;0.0;0.0;0.0;0.0;0.0;0.0;0.0;0.0;0.0;0.0;0.038461538461538464;0.0;0.0;0.038461538461538464;0.0;0.0;0.0;0.0;0.0;0.0;0.0;0.0;0.0;0.038461538461538464;0.0;0.0;0.0;0.0;0.0;0.0;0.0;0.0;0.0;0.0;0.0;0.0;0.0;0.0;0.0;0.0;0.0;0.0;0.0;0.0;0.0;0.0;0.0;0.0;0.0;0.0;0.0;0.0;0.0;0.0;0.0;0.0;0.0;0.0;0.0;0.0;0.0;0.0;0.0;0.0;0.0;0.0;0.0;0.0;0.0;0.0;0.0;0.0;0.0;0.0;0.0;0.0;0.0;0.0;0.0;0.0;0.0;0.0;0.0;0.0;0.0;0.0;0.0;0.0;0.0;0.0;0.0;0.0;0.0;0.0;0.0;0.0;0.0;0.0;0.0;0.0;0.0;0.0;0.0;0.0;0.0;0.0;0.0;0.0;0.0;0.0;0.0;0.0;0.0;0.0;0.0;0.0;0.0;0.038461538461538464;0.0;0.0;0.0;0.0;0.0;0.0;0.0;0.0;0.0;0.0;0.0;0.0;0.0;0.0;0.0;0.0;0.0;0.0;0.0;0.0;0.0;0.0;0.0;0.0;0.0;0.0;0.0;0.0;0.0;0.0;0.0;0.0;0.0;0.0;0.0;0.0;0.0;0.0;0.0;0.0;0.0;0.0;0.0;0.0;0.0;0.0;0.0;0.0;0.0;0.0;0.0;0.0;0.0;0.0;0.0;0.0;0.0;0.0;0.0;0.0;0.0;0.0;0.0;0.0;0.0;0.0;0.0;0.0;0.0;0.0;0.07692307692307693;Backdoor.Win32.007
0.6153846153846154;0.0;0.038461538461538464;0.0;0.038461538461538464;0.0;0.0;0.0;0.0;0.0;0.0;0.0;0.0;0.0;0.0;0.038461538461538464;0.0;0.0;0.0;0.0;0.0;0.0;0.0;0.0;0.0;0.0;0.0;0.0;0.0;0.0;0.0;0.0;0.0;0.0;0.0;0.0;0.0;0.0;0.0;0.0;0.0;0.0;0.0;0.0;0.0;0.0;0.0;0.0;0.0;0.0;0.0;0.0;0.0;0.0;0.0;0.0;0.0;0.0;0.0;0.0;0.0;0.0;0.0;0.0;0.038461538461538464;0.0;0.0;0.0;0.0;0.0;0.0;0.0;0.0;0.0;0.0;0.0;0.0;0.038461538461538464;0.0;0.0;0.038461538461538464;0.0;0.0;0.0;0.0;0.0;0.0;0.0;0.0;0.0;0.038461538461538464;0.0;0.0;0.0;0.0;0.0;0.0;0.0;0.0;0.0;0.0;0.0;0.0;0.0;0.0;0.0;0.0;0.0;0.0;0.0;0.0;0.0;0.0;0.0;0.0;0.0;0.0;0.0;0.0;0.0;0.0;0.0;0.0;0.0;0.0;0.0;0.0;0.0;0.0;0.0;0.0;0.0;0.0;0.0;0.0;0.0;0.0;0.0;0.0;0.0;0.0;0.0;0.0;0.0;0.0;0.0;0.0;0.0;0.0;0.0;0.0;0.0;0.0;0.0;0.0;0.0;0.0;0.0;0.0;0.0;0.0;0.0;0.0;0.0;0.0;0.0;0.0;0.0;0.0;0.0;0.0;0.0;0.0;0.0;0.0;0.0;0.0;0.0;0.0;0.0;0.0;0.0;0.0;0.0;0.038461538461538464;0.0;0.0;0.0;0.0;0.0;0.0;0.0;0.0;0.0;0.0;0.0;0.0;0.0;0.0;0.0;0.0;0.0;0.0;0.0;0.0;0.0;0.0;0.0;0.0;0.0;0.0;0.0;0.0;0.0;0.0;0.0;0.0;0.0;0.0;0.0;0.0;0.0;0.0;0.0;0.0;0.0;0.0;0.0;0.0;0.0;0.0;0.0;0.0;0.0;0.0;0.0;0.0;0.0;0.0;0.0;0.0;0.0;0.0;0.0;0.0;0.0;0.0;0.0;0.0;0.0;0.0;0.0;0.0;0.0;0.0;0.07692307692307693;Backdoor.Win32.008
0.4292845257903494;0.011647254575707155;0.0033277870216306157;0.004159733777038269;0.0074875207986688855;0.0;0.0016638935108153079;0.0008319467554076539;0.0;0.0016638935108153079;0.0066555740432612314;0.0008319467554076539;0.0024958402662229617;0.0008319467554076539;0.0024958402662229617;0.0008319467554076539;0.0074875207986688855;0.0024958402662229617;0.0008319467554076539;0.0016638935108153079;0.0024958402662229617;0.0;0.0016638935108153079;0.0016638935108153079;0.0008319467554076539;0.0;0.0;0.0;0.0;0.0008319467554076539;0.0008319467554076539;0.0016638935108153079;0.04076539101497504;0.0033277870216306157;0.0;0.0;0.010815307820299502;0.0;0.0033277870216306157;0.0;0.0016638935108153079;0.0016638935108153079;0.0;0.0016638935108153079;0.0008319467554076539;0.010815307820299502;0.0066555740432612314;0.0016638935108153079;0.0024958402662229617;0.0066555740432612314;0.004159733777038269;0.0024958402662229617;0.0016638935108153079;0.0;0.004159733777038269;0.0008319467554076539;0.0016638935108153079;0.013311148086522463;0.004159733777038269;0.0008319467554076539;0.0016638935108153079;0.0008319467554076539;0.0;0.0008319467554076539;0.004991680532445923;0.0016638935108153079;0.0008319467554076539;0.0033277870216306157;0.0016638935108153079;0.0008319467554076539;0.0016638935108153079;0.0;0.0016638935108153079;0.004159733777038269;0.0008319467554076539;0.0;0.004991680532445923;0.0033277870216306157;0.0016638935108153079;0.0024958402662229617;0.009151414309484194;0.0;0.0024958402662229617;0.0016638935108153079;0.0016638935108153079;0.005823627287853577;0.0024958402662229617;0.0016638935108153079;0.0066555740432612314;0.0008319467554076539;0.0008319467554076539;0.0024958402662229617;0.0008319467554076539;0.0;0.0008319467554076539;0.0016638935108153079;0.0;0.008319467554076539;0.004991680532445923;0.009151414309484194;0.005823627287853577;0.01747088186356073;0.004991680532445923;0.004159733777038269;0.009151414309484194;0.021630615640599003;0.0;0.004159733777038269;0.005823627287853577;0.0033277870216306157;0.008319467554076539;0.009151414309484194;0.0066555740432612314;0.0;0.014975041597337771;0.009983361064891847;0.010815307820299502;0.008319467554076539;0.0;0.0008319467554076539;0.0024958402662229617;0.0016638935108153079;0.0024958402662229617;0.0;0.0008319467554076539;0.0008319467554076539;0.0;0.0;0.0024958402662229617;0.0016638935108153079;0.0;0.0033277870216306157;0.0008319467554076539;0.0;0.0;0.0;0.0;0.0016638935108153079;0.0;0.0066555740432612314;0.0008319467554076539;0.0033277870216306157;0.0;0.0;0.004991680532445923;0.0;0.0;0.0;0.0016638935108153079;0.0;0.0008319467554076539;0.0;0.0;0.0;0.0008319467554076539;0.0;0.0;0.0;0.0;0.0;0.0024958402662229617;0.0016638935108153079;0.0;0.0008319467554076539;0.0033277870216306157;0.0008319467554076539;0.0;0.0;0.0008319467554076539;0.0;0.0;0.0016638935108153079;0.0;0.0;0.0008319467554076539;0.0008319467554076539;0.0;0.0;0.0;0.0;0.0016638935108153079;0.0;0.0;0.014143094841930116;0.0024958402662229617;0.0008319467554076539;0.0024958402662229617;0.0016638935108153079;0.0008319467554076539;0.0;0.0;0.0;0.0016638935108153079;0.0033277870216306157;0.0;0.0008319467554076539;0.0008319467554076539;0.0;0.0008319467554076539;0.0;0.0008319467554076539;0.0016638935108153079;0.0;0.0;0.0;0.0016638935108153079;0.0;0.0;0.0;0.0024958402662229617;0.0;0.0008319467554076539;0.0;0.0;0.0;0.0;0.0016638935108153079;0.0008319467554076539;0.0;0.0008319467554076539;0.0008319467554076539;0.0;0.0;0.0008319467554076539;0.004159733777038269;0.0008319467554076539;0.0;0.0;0.0008319467554076539;0.0;0.0008319467554076539;0.0;0.0;0.0016638935108153079;0.0;0.0008319467554076539;0.0016638935108153079;0.0008319467554076539;0.0;0.0008319467554076539;0.0016638935108153079;0.0008319467554076539;0.0008319467554076539;0.0024958402662229617;0.0008319467554076539;0.0008319467554076539;0.0008319467554076539;0.0016638935108153079;0.0;0.0008319467554076539;0.0016638935108153079;0.0016638935108153079;0.0;0.0;0.0024958402662229617;0.009151414309484194;Backdoor.Win32.009
0.6153846153846154;0.0;0.038461538461538464;0.0;0.038461538461538464;0.0;0.0;0.0;0.0;0.0;0.0;0.0;0.0;0.0;0.0;0.038461538461538464;0.0;0.0;0.0;0.0;0.0;0.0;0.0;0.0;0.0;0.0;0.0;0.0;0.0;0.0;0.0;0.0;0.0;0.0;0.0;0.0;0.0;0.0;0.0;0.0;0.0;0.0;0.0;0.0;0.0;0.0;0.0;0.0;0.0;0.0;0.0;0.0;0.0;0.0;0.0;0.0;0.0;0.0;0.0;0.0;0.0;0.0;0.0;0.0;0.038461538461538464;0.0;0.0;0.0;0.0;0.0;0.0;0.0;0.0;0.0;0.0;0.0;0.0;0.038461538461538464;0.0;0.0;0.038461538461538464;0.0;0.0;0.0;0.0;0.0;0.0;0.0;0.0;0.0;0.038461538461538464;0.0;0.0;0.0;0.0;0.0;0.0;0.0;0.0;0.0;0.0;0.0;0.0;0.0;0.0;0.0;0.0;0.0;0.0;0.0;0.0;0.0;0.0;0.0;0.0;0.0;0.0;0.0;0.0;0.0;0.0;0.0;0.0;0.0;0.0;0.0;0.0;0.0;0.0;0.0;0.0;0.0;0.0;0.0;0.0;0.0;0.0;0.0;0.0;0.0;0.0;0.0;0.0;0.0;0.0;0.0;0.0;0.0;0.0;0.0;0.0;0.0;0.0;0.0;0.0;0.0;0.0;0.0;0.0;0.0;0.0;0.0;0.0;0.0;0.0;0.0;0.0;0.0;0.0;0.0;0.0;0.0;0.0;0.0;0.0;0.0;0.0;0.0;0.0;0.0;0.0;0.0;0.0;0.0;0.038461538461538464;0.0;0.0;0.0;0.0;0.0;0.0;0.0;0.0;0.0;0.0;0.0;0.0;0.0;0.0;0.0;0.0;0.0;0.0;0.0;0.0;0.0;0.0;0.0;0.0;0.0;0.0;0.0;0.0;0.0;0.0;0.0;0.0;0.0;0.0;0.0;0.0;0.0;0.0;0.0;0.0;0.0;0.0;0.0;0.0;0.0;0.0;0.0;0.0;0.0;0.0;0.0;0.0;0.0;0.0;0.0;0.0;0.0;0.0;0.0;0.0;0.0;0.0;0.0;0.0;0.0;0.0;0.0;0.0;0.0;0.0;0.07692307692307693;Backdoor.Win32.010
0.6153846153846154;0.0;0.038461538461538464;0.0;0.038461538461538464;0.0;0.0;0.0;0.0;0.0;0.0;0.0;0.0;0.0;0.0;0.038461538461538464;0.0;0.0;0.0;0.0;0.0;0.0;0.0;0.0;0.0;0.0;0.0;0.0;0.0;0.0;0.0;0.0;0.0;0.0;0.0;0.0;0.0;0.0;0.0;0.0;0.0;0.0;0.0;0.0;0.0;0.0;0.0;0.0;0.0;0.0;0.0;0.0;0.0;0.0;0.0;0.0;0.0;0.0;0.0;0.0;0.0;0.0;0.0;0.0;0.038461538461538464;0.0;0.0;0.0;0.0;0.0;0.0;0.0;0.0;0.0;0.0;0.0;0.0;0.038461538461538464;0.0;0.0;0.038461538461538464;0.0;0.0;0.0;0.0;0.0;0.0;0.0;0.0;0.0;0.038461538461538464;0.0;0.0;0.0;0.0;0.0;0.0;0.0;0.0;0.0;0.0;0.0;0.0;0.0;0.0;0.0;0.0;0.0;0.0;0.0;0.0;0.0;0.0;0.0;0.0;0.0;0.0;0.0;0.0;0.0;0.0;0.0;0.0;0.0;0.0;0.0;0.0;0.0;0.0;0.0;0.0;0.0;0.0;0.0;0.0;0.0;0.0;0.0;0.0;0.0;0.0;0.0;0.0;0.0;0.0;0.0;0.0;0.0;0.0;0.0;0.0;0.0;0.0;0.0;0.0;0.0;0.0;0.0;0.0;0.0;0.0;0.0;0.0;0.0;0.0;0.0;0.0;0.0;0.0;0.0;0.0;0.0;0.0;0.0;0.0;0.0;0.0;0.0;0.0;0.0;0.0;0.0;0.0;0.0;0.038461538461538464;0.0;0.0;0.0;0.0;0.0;0.0;0.0;0.0;0.0;0.0;0.0;0.0;0.0;0.0;0.0;0.0;0.0;0.0;0.0;0.0;0.0;0.0;0.0;0.0;0.0;0.0;0.0;0.0;0.0;0.0;0.0;0.0;0.0;0.0;0.0;0.0;0.0;0.0;0.0;0.0;0.0;0.0;0.0;0.0;0.0;0.0;0.0;0.0;0.0;0.0;0.0;0.0;0.0;0.0;0.0;0.0;0.0;0.0;0.0;0.0;0.0;0.0;0.0;0.0;0.0;0.0;0.0;0.0;0.0;0.0;0.07692307692307693;Backdoor.Win32.711
0.76993583868011;0.00458295142071494;0.0036663611365719525;0.0009165902841429881;0.02383134738771769;0.0036663611365719525;0.0018331805682859762;0.002749770852428964;0.006416131989000917;0.0009165902841429881;0.002749770852428964;0.0009165902841429881;0.0;0.0009165902841429881;0.002749770852428964;0.0;0.008249312557286892;0.0009165902841429881;0.0;0.0;0.0009165902841429881;0.0;0.0;0.0;0.0;0.0;0.0;0.0;0.0;0.0;0.0009165902841429881;0.0009165902841429881;0.008249312557286892;0.0018331805682859762;0.0009165902841429881;0.0009165902841429881;0.0018331805682859762;0.0;0.0;0.0;0.0009165902841429881;0.0;0.0009165902841429881;0.0;0.0;0.0;0.007332722273143905;0.0;0.0009165902841429881;0.0009165902841429881;0.0;0.0;0.0;0.0018331805682859762;0.0;0.0;0.0;0.0009165902841429881;0.0;0.0018331805682859762;0.0018331805682859762;0.0;0.0;0.0;0.00916590284142988;0.0009165902841429881;0.002749770852428964;0.0;0.01008249312557287;0.0009165902841429881;0.0;0.0;0.0;0.0009165902841429881;0.0009165902841429881;0.0;0.006416131989000917;0.00458295142071494;0.0018331805682859762;0.002749770852428964;0.005499541704857928;0.0;0.0009165902841429881;0.0018331805682859762;0.002749770852428964;0.0;0.0018331805682859762;0.0;0.0009165902841429881;0.0;0.0009165902841429881;0.0;0.0;0.0;0.0;0.0009165902841429881;0.002749770852428964;0.005499541704857928;0.0018331805682859762;0.002749770852428964;0.0036663611365719525;0.0036663611365719525;0.0;0.0009165902841429881;0.0018331805682859762;0.002749770852428964;0.0;0.0;0.0009165902841429881;0.0018331805682859762;0.0036663611365719525;0.0036663611365719525;0.0036663611365719525;0.0;0.005499541704857928;0.0018331805682859762;0.00458295142071494;0.0009165902841429881;0.0;0.0;0.0009165902841429881;0.0;0.0;0.0;0.0;0.0;0.0;0.0;0.002749770852428964;0.0;0.0;0.0;0.0;0.0;0.0;0.0;0.0;0.0;0.0;0.0;0.0;0.0;0.0;0.0;0.002749770852428964;0.0;0.0;0.0;0.0;0.0;0.0;0.0;0.0;0.0;0.0;0.0;0.0;0.0;0.0;0.0;0.0009165902841429881;0.0;0.0;0.0;0.0;0.0;0.0;0.0;0.0;0.0;0.0;0.0;0.0;0.0;0.0;0.0;0.0;0.0;0.0009165902841429881;0.0;0.0009165902841429881;0.0;0.0;0.0;0.002749770852428964;0.0;0.0009165902841429881;0.0;0.0;0.0;0.0;0.0;0.0009165902841429881;0.0;0.0;0.0;0.0;0.0;0.0;0.0;0.0018331805682859762;0.0;0.0;0.0;0.0;0.0018331805682859762;0.0;0.0;0.0;0.0;0.0;0.0;0.0;0.0;0.0;0.0;0.0;0.0;0.0;0.0;0.0;0.0;0.0;0.0;0.002749770852428964;0.0;0.0;0.0;0.0;0.0;0.0;0.0;0.0;0.0;0.0;0.0;0.0;0.0;0.0;0.0;0.0;0.0;0.0;0.0;0.0;0.0;0.0;0.0;0.0;0.0;0.0;0.0;0.0;0.0;0.0;0.0018331805682859762;Backdoor.Win32.Acidhead.10
